%YAML 1.1
%TAG !u! tag:unity3d.com,2011:
--- !u!29 &1
OcclusionCullingSettings:
  m_ObjectHideFlags: 0
  serializedVersion: 2
  m_OcclusionBakeSettings:
    smallestOccluder: 5
    smallestHole: 0.25
    backfaceThreshold: 100
  m_SceneGUID: 00000000000000000000000000000000
  m_OcclusionCullingData: {fileID: 0}
--- !u!104 &2
RenderSettings:
  m_ObjectHideFlags: 0
  serializedVersion: 9
  m_Fog: 0
  m_FogColor: {r: 0.5, g: 0.5, b: 0.5, a: 1}
  m_FogMode: 3
  m_FogDensity: 0.01
  m_LinearFogStart: 0
  m_LinearFogEnd: 300
  m_AmbientSkyColor: {r: 0.212, g: 0.227, b: 0.259, a: 1}
  m_AmbientEquatorColor: {r: 0.114, g: 0.125, b: 0.133, a: 1}
  m_AmbientGroundColor: {r: 0.047, g: 0.043, b: 0.035, a: 1}
  m_AmbientIntensity: 1
  m_AmbientMode: 0
  m_SubtractiveShadowColor: {r: 0.42, g: 0.478, b: 0.627, a: 1}
  m_SkyboxMaterial: {fileID: 10304, guid: 0000000000000000f000000000000000, type: 0}
  m_HaloStrength: 0.5
  m_FlareStrength: 1
  m_FlareFadeSpeed: 3
  m_HaloTexture: {fileID: 0}
  m_SpotCookie: {fileID: 10001, guid: 0000000000000000e000000000000000, type: 0}
  m_DefaultReflectionMode: 0
  m_DefaultReflectionResolution: 128
  m_ReflectionBounces: 1
  m_ReflectionIntensity: 1
  m_CustomReflection: {fileID: 0}
  m_Sun: {fileID: 0}
  m_IndirectSpecularColor: {r: 0, g: 0, b: 0, a: 1}
  m_UseRadianceAmbientProbe: 0
--- !u!157 &3
LightmapSettings:
  m_ObjectHideFlags: 0
  serializedVersion: 12
  m_GIWorkflowMode: 1
  m_GISettings:
    serializedVersion: 2
    m_BounceScale: 1
    m_IndirectOutputScale: 1
    m_AlbedoBoost: 1
    m_EnvironmentLightingMode: 0
    m_EnableBakedLightmaps: 1
    m_EnableRealtimeLightmaps: 0
  m_LightmapEditorSettings:
    serializedVersion: 12
    m_Resolution: 2
    m_BakeResolution: 40
    m_AtlasSize: 1024
    m_AO: 0
    m_AOMaxDistance: 1
    m_CompAOExponent: 1
    m_CompAOExponentDirect: 0
    m_ExtractAmbientOcclusion: 0
    m_Padding: 2
    m_LightmapParameters: {fileID: 0}
    m_LightmapsBakeMode: 1
    m_TextureCompression: 1
    m_FinalGather: 0
    m_FinalGatherFiltering: 1
    m_FinalGatherRayCount: 256
    m_ReflectionCompression: 2
    m_MixedBakeMode: 2
    m_BakeBackend: 1
    m_PVRSampling: 1
    m_PVRDirectSampleCount: 32
    m_PVRSampleCount: 512
    m_PVRBounces: 2
    m_PVREnvironmentSampleCount: 256
    m_PVREnvironmentReferencePointCount: 2048
    m_PVRFilteringMode: 1
    m_PVRDenoiserTypeDirect: 1
    m_PVRDenoiserTypeIndirect: 1
    m_PVRDenoiserTypeAO: 1
    m_PVRFilterTypeDirect: 0
    m_PVRFilterTypeIndirect: 0
    m_PVRFilterTypeAO: 0
    m_PVREnvironmentMIS: 1
    m_PVRCulling: 1
    m_PVRFilteringGaussRadiusDirect: 1
    m_PVRFilteringGaussRadiusIndirect: 5
    m_PVRFilteringGaussRadiusAO: 2
    m_PVRFilteringAtrousPositionSigmaDirect: 0.5
    m_PVRFilteringAtrousPositionSigmaIndirect: 2
    m_PVRFilteringAtrousPositionSigmaAO: 1
    m_ExportTrainingData: 0
    m_TrainingDataDestination: TrainingData
    m_LightProbeSampleCountMultiplier: 4
  m_LightingDataAsset: {fileID: 0}
  m_LightingSettings: {fileID: 0}
--- !u!196 &4
NavMeshSettings:
  serializedVersion: 2
  m_ObjectHideFlags: 0
  m_BuildSettings:
    serializedVersion: 2
    agentTypeID: 0
    agentRadius: 0.5
    agentHeight: 2
    agentSlope: 45
    agentClimb: 0.4
    ledgeDropHeight: 0
    maxJumpAcrossDistance: 0
    minRegionArea: 2
    manualCellSize: 0
    cellSize: 0.16666667
    manualTileSize: 0
    tileSize: 256
    accuratePlacement: 0
    maxJobWorkers: 0
    preserveTilesOutsideBounds: 0
    debug:
      m_Flags: 0
  m_NavMeshData: {fileID: 0}
--- !u!1 &485874610
GameObject:
  m_ObjectHideFlags: 0
  m_CorrespondingSourceObject: {fileID: 0}
  m_PrefabInstance: {fileID: 0}
  m_PrefabAsset: {fileID: 0}
  serializedVersion: 6
  m_Component:
  - component: {fileID: 485874613}
  - component: {fileID: 485874612}
  - component: {fileID: 485874611}
  - component: {fileID: 485874615}
  - component: {fileID: 485874614}
  m_Layer: 0
  m_Name: Main Camera
  m_TagString: MainCamera
  m_Icon: {fileID: 0}
  m_NavMeshLayer: 0
  m_StaticEditorFlags: 0
  m_IsActive: 1
--- !u!81 &485874611
AudioListener:
  m_ObjectHideFlags: 0
  m_CorrespondingSourceObject: {fileID: 0}
  m_PrefabInstance: {fileID: 0}
  m_PrefabAsset: {fileID: 0}
  m_GameObject: {fileID: 485874610}
  m_Enabled: 1
--- !u!20 &485874612
Camera:
  m_ObjectHideFlags: 0
  m_CorrespondingSourceObject: {fileID: 0}
  m_PrefabInstance: {fileID: 0}
  m_PrefabAsset: {fileID: 0}
  m_GameObject: {fileID: 485874610}
  m_Enabled: 1
  serializedVersion: 2
  m_ClearFlags: 1
  m_BackGroundColor: {r: 0.19215687, g: 0.3019608, b: 0.4745098, a: 0}
  m_projectionMatrixMode: 1
  m_GateFitMode: 2
  m_FOVAxisMode: 0
  m_SensorSize: {x: 36, y: 24}
  m_LensShift: {x: 0, y: 0}
  m_FocalLength: 50
  m_NormalizedViewPortRect:
    serializedVersion: 2
    x: 0
    y: 0
    width: 1
    height: 1
  near clip plane: 0.3
  far clip plane: 100
  field of view: 120
  orthographic: 1
  orthographic size: 35
  m_Depth: -1
  m_CullingMask:
    serializedVersion: 2
    m_Bits: 4294967295
  m_RenderingPath: -1
  m_TargetTexture: {fileID: 0}
  m_TargetDisplay: 0
  m_TargetEye: 3
  m_HDR: 1
  m_AllowMSAA: 1
  m_AllowDynamicResolution: 0
  m_ForceIntoRT: 0
  m_OcclusionCulling: 1
  m_StereoConvergence: 10
  m_StereoSeparation: 0.022
--- !u!4 &485874613
Transform:
  m_ObjectHideFlags: 0
  m_CorrespondingSourceObject: {fileID: 0}
  m_PrefabInstance: {fileID: 0}
  m_PrefabAsset: {fileID: 0}
  m_GameObject: {fileID: 485874610}
  m_LocalRotation: {x: 0.7071068, y: -0, z: -0, w: 0.7071068}
  m_LocalPosition: {x: 50.024956, y: 50.340008, z: 0.24000601}
  m_LocalScale: {x: 1, y: 1, z: 1}
  m_Children:
  - {fileID: 1190004335}
  m_Father: {fileID: 997525220}
  m_RootOrder: 0
  m_LocalEulerAnglesHint: {x: 0, y: 69.096, z: 65.819}
--- !u!114 &485874614
MonoBehaviour:
  m_ObjectHideFlags: 0
  m_CorrespondingSourceObject: {fileID: 0}
  m_PrefabInstance: {fileID: 0}
  m_PrefabAsset: {fileID: 0}
  m_GameObject: {fileID: 485874610}
  m_Enabled: 1
  m_EditorHideFlags: 0
  m_Script: {fileID: 11500000, guid: a79441f348de89743a2939f4d699eac1, type: 3}
  m_Name: 
  m_EditorClassIdentifier: 
  m_RenderShadows: 1
  m_RequiresDepthTextureOption: 2
  m_RequiresOpaqueTextureOption: 2
  m_CameraType: 0
  m_Cameras: []
  m_RendererIndex: -1
  m_VolumeLayerMask:
    serializedVersion: 2
    m_Bits: 1
  m_VolumeTrigger: {fileID: 0}
  m_RenderPostProcessing: 0
  m_Antialiasing: 0
  m_AntialiasingQuality: 2
  m_StopNaN: 0
  m_Dithering: 0
  m_ClearDepth: 1
  m_AllowXRRendering: 1
  m_RequiresDepthTexture: 0
  m_RequiresColorTexture: 0
  m_Version: 2
--- !u!114 &485874615
MonoBehaviour:
  m_ObjectHideFlags: 0
  m_CorrespondingSourceObject: {fileID: 0}
  m_PrefabInstance: {fileID: 0}
  m_PrefabAsset: {fileID: 0}
  m_GameObject: {fileID: 485874610}
  m_Enabled: 1
  m_EditorHideFlags: 0
  m_Script: {fileID: 11500000, guid: 72ece51f2901e7445ab60da3685d6b5f, type: 3}
  m_Name: 
  m_EditorClassIdentifier: 
  m_ShowDebugText: 0
  m_ShowCameraFrustum: 1
  m_IgnoreTimeScale: 0
  m_WorldUpOverride: {fileID: 0}
  m_UpdateMethod: 2
  m_BlendUpdateMethod: 1
  m_DefaultBlend:
    m_Style: 1
    m_Time: 2
    m_CustomCurve:
      serializedVersion: 2
      m_Curve: []
      m_PreInfinity: 2
      m_PostInfinity: 2
      m_RotationOrder: 4
  m_CustomBlends: {fileID: 0}
  m_CameraCutEvent:
    m_PersistentCalls:
      m_Calls: []
  m_CameraActivatedEvent:
    m_PersistentCalls:
      m_Calls: []
--- !u!1 &499228761
GameObject:
  m_ObjectHideFlags: 3
  m_CorrespondingSourceObject: {fileID: 0}
  m_PrefabInstance: {fileID: 0}
  m_PrefabAsset: {fileID: 0}
  serializedVersion: 6
  m_Component:
  - component: {fileID: 499228762}
  - component: {fileID: 499228764}
  - component: {fileID: 499228763}
  m_Layer: 0
  m_Name: cm
  m_TagString: Untagged
  m_Icon: {fileID: 0}
  m_NavMeshLayer: 0
  m_StaticEditorFlags: 0
  m_IsActive: 1
--- !u!4 &499228762
Transform:
  m_ObjectHideFlags: 3
  m_CorrespondingSourceObject: {fileID: 0}
  m_PrefabInstance: {fileID: 0}
  m_PrefabAsset: {fileID: 0}
  m_GameObject: {fileID: 499228761}
  m_LocalRotation: {x: -0.07302378, y: -0.13866258, z: 0.010265013, w: 0.9875905}
  m_LocalPosition: {x: -0.33794978, y: 0.12960458, z: 2.065824}
  m_LocalScale: {x: 1, y: 1, z: 1}
  m_Children: []
  m_Father: {fileID: 513410362}
  m_RootOrder: 0
  m_LocalEulerAnglesHint: {x: 0, y: 0, z: 0}
--- !u!114 &499228763
MonoBehaviour:
  m_ObjectHideFlags: 3
  m_CorrespondingSourceObject: {fileID: 0}
  m_PrefabInstance: {fileID: 0}
  m_PrefabAsset: {fileID: 0}
  m_GameObject: {fileID: 499228761}
  m_Enabled: 1
  m_EditorHideFlags: 0
  m_Script: {fileID: 11500000, guid: 6ad980451443d70438faac0bc6c235a0, type: 3}
  m_Name: 
  m_EditorClassIdentifier: 
  m_TrackedObjectOffset: {x: 50, y: 0, z: 0}
  m_LookaheadTime: 0
  m_LookaheadSmoothing: 0
  m_LookaheadIgnoreY: 0
  m_XDamping: 1
  m_YDamping: 1
  m_ZDamping: 1
  m_TargetMovementOnly: 1
  m_ScreenX: 0.5
  m_ScreenY: 0.5
  m_CameraDistance: 50
  m_DeadZoneWidth: 0
  m_DeadZoneHeight: 0
  m_DeadZoneDepth: 0
  m_UnlimitedSoftZone: 0
  m_SoftZoneWidth: 0.8
  m_SoftZoneHeight: 0.8
  m_BiasX: 0
  m_BiasY: 0
  m_CenterOnActivate: 1
  m_GroupFramingMode: 2
  m_AdjustmentMode: 0
  m_GroupFramingSize: 0.8
  m_MaxDollyIn: 5000
  m_MaxDollyOut: 5000
  m_MinimumDistance: 1
  m_MaximumDistance: 5000
  m_MinimumFOV: 3
  m_MaximumFOV: 60
  m_MinimumOrthoSize: 1
  m_MaximumOrthoSize: 5000
--- !u!114 &499228764
MonoBehaviour:
  m_ObjectHideFlags: 3
  m_CorrespondingSourceObject: {fileID: 0}
  m_PrefabInstance: {fileID: 0}
  m_PrefabAsset: {fileID: 0}
  m_GameObject: {fileID: 499228761}
  m_Enabled: 1
  m_EditorHideFlags: 0
  m_Script: {fileID: 11500000, guid: ac0b09e7857660247b1477e93731de29, type: 3}
  m_Name: 
  m_EditorClassIdentifier: 
--- !u!1 &513410360
GameObject:
  m_ObjectHideFlags: 0
  m_CorrespondingSourceObject: {fileID: 0}
  m_PrefabInstance: {fileID: 0}
  m_PrefabAsset: {fileID: 0}
  serializedVersion: 6
  m_Component:
  - component: {fileID: 513410362}
  - component: {fileID: 513410361}
  m_Layer: 0
  m_Name: CM vcam1
  m_TagString: Untagged
  m_Icon: {fileID: 0}
  m_NavMeshLayer: 0
  m_StaticEditorFlags: 0
  m_IsActive: 1
--- !u!114 &513410361
MonoBehaviour:
  m_ObjectHideFlags: 0
  m_CorrespondingSourceObject: {fileID: 0}
  m_PrefabInstance: {fileID: 0}
  m_PrefabAsset: {fileID: 0}
  m_GameObject: {fileID: 513410360}
  m_Enabled: 1
  m_EditorHideFlags: 0
  m_Script: {fileID: 11500000, guid: 45e653bab7fb20e499bda25e1b646fea, type: 3}
  m_Name: 
  m_EditorClassIdentifier: 
  m_ExcludedPropertiesInInspector:
  - m_Script
  m_LockStageInInspector: 
  m_StreamingVersion: 20170927
  m_Priority: 10
  m_StandbyUpdate: 2
  m_LookAt: {fileID: 0}
  m_Follow: {fileID: 1470069922}
  m_Lens:
    FieldOfView: 120
    OrthographicSize: 35
    NearClipPlane: 0.3
    FarClipPlane: 100
    Dutch: 0
    LensShift: {x: 0, y: 0}
  m_Transitions:
    m_BlendHint: 0
    m_InheritPosition: 0
    m_OnCameraLive:
      m_PersistentCalls:
        m_Calls: []
  m_LegacyBlendHint: 0
  m_ComponentOwner: {fileID: 499228762}
--- !u!4 &513410362
Transform:
  m_ObjectHideFlags: 0
  m_CorrespondingSourceObject: {fileID: 0}
  m_PrefabInstance: {fileID: 0}
  m_PrefabAsset: {fileID: 0}
  m_GameObject: {fileID: 513410360}
  m_LocalRotation: {x: 0.7071068, y: 0, z: 0, w: 0.7071068}
  m_LocalPosition: {x: 50.024956, y: 50.340008, z: 0.24000601}
  m_LocalScale: {x: 1, y: 1, z: 1}
  m_Children:
  - {fileID: 499228762}
  m_Father: {fileID: 997525220}
  m_RootOrder: 1
  m_LocalEulerAnglesHint: {x: 90, y: 0, z: 0}
--- !u!1001 &625784114
PrefabInstance:
  m_ObjectHideFlags: 0
  serializedVersion: 2
  m_Modification:
    m_TransformParent: {fileID: 0}
    m_Modifications:
    - target: {fileID: 18788116, guid: 98ae7509bb05aa14ebf03cc501d3c6a4, type: 3}
      propertyPath: m_LocalScale.x
      value: 10
      objectReference: {fileID: 0}
    - target: {fileID: 18788116, guid: 98ae7509bb05aa14ebf03cc501d3c6a4, type: 3}
      propertyPath: m_LocalScale.y
      value: 10
      objectReference: {fileID: 0}
    - target: {fileID: 18788116, guid: 98ae7509bb05aa14ebf03cc501d3c6a4, type: 3}
      propertyPath: m_LocalScale.z
      value: 10
      objectReference: {fileID: 0}
    - target: {fileID: 18788116, guid: 98ae7509bb05aa14ebf03cc501d3c6a4, type: 3}
      propertyPath: m_LocalPosition.x
      value: 0
      objectReference: {fileID: 0}
    - target: {fileID: 18788116, guid: 98ae7509bb05aa14ebf03cc501d3c6a4, type: 3}
      propertyPath: m_LocalPosition.y
      value: 15.9954
      objectReference: {fileID: 0}
    - target: {fileID: 18788116, guid: 98ae7509bb05aa14ebf03cc501d3c6a4, type: 3}
      propertyPath: m_LocalRotation.w
      value: 0.7071068
      objectReference: {fileID: 0}
    - target: {fileID: 18788116, guid: 98ae7509bb05aa14ebf03cc501d3c6a4, type: 3}
      propertyPath: m_LocalRotation.x
      value: 0.7071068
      objectReference: {fileID: 0}
    - target: {fileID: 18788116, guid: 98ae7509bb05aa14ebf03cc501d3c6a4, type: 3}
      propertyPath: m_LocalRotation.y
      value: 0
      objectReference: {fileID: 0}
    - target: {fileID: 18788116, guid: 98ae7509bb05aa14ebf03cc501d3c6a4, type: 3}
      propertyPath: m_LocalRotation.z
      value: 0
      objectReference: {fileID: 0}
    - target: {fileID: 18788116, guid: 98ae7509bb05aa14ebf03cc501d3c6a4, type: 3}
      propertyPath: m_LocalEulerAnglesHint.x
      value: 90
      objectReference: {fileID: 0}
    - target: {fileID: 18788117, guid: 98ae7509bb05aa14ebf03cc501d3c6a4, type: 3}
      propertyPath: infiniteVertical
      value: 0
      objectReference: {fileID: 0}
    - target: {fileID: 18788117, guid: 98ae7509bb05aa14ebf03cc501d3c6a4, type: 3}
      propertyPath: infiniteHorizontal
      value: 0
      objectReference: {fileID: 0}
    - target: {fileID: 18788118, guid: 98ae7509bb05aa14ebf03cc501d3c6a4, type: 3}
      propertyPath: m_Size.x
      value: 1000
      objectReference: {fileID: 0}
    - target: {fileID: 18788118, guid: 98ae7509bb05aa14ebf03cc501d3c6a4, type: 3}
      propertyPath: m_Size.y
      value: 200
      objectReference: {fileID: 0}
    - target: {fileID: 752676858, guid: 98ae7509bb05aa14ebf03cc501d3c6a4, type: 3}
      propertyPath: m_LocalScale.x
      value: 10
      objectReference: {fileID: 0}
    - target: {fileID: 752676858, guid: 98ae7509bb05aa14ebf03cc501d3c6a4, type: 3}
      propertyPath: m_LocalScale.y
      value: 10
      objectReference: {fileID: 0}
    - target: {fileID: 752676858, guid: 98ae7509bb05aa14ebf03cc501d3c6a4, type: 3}
      propertyPath: m_LocalScale.z
      value: 10
      objectReference: {fileID: 0}
    - target: {fileID: 752676858, guid: 98ae7509bb05aa14ebf03cc501d3c6a4, type: 3}
      propertyPath: m_LocalPosition.x
      value: 0
      objectReference: {fileID: 0}
    - target: {fileID: 752676858, guid: 98ae7509bb05aa14ebf03cc501d3c6a4, type: 3}
      propertyPath: m_LocalPosition.y
      value: 15.9954
      objectReference: {fileID: 0}
    - target: {fileID: 752676858, guid: 98ae7509bb05aa14ebf03cc501d3c6a4, type: 3}
      propertyPath: m_LocalRotation.w
      value: 0.7071068
      objectReference: {fileID: 0}
    - target: {fileID: 752676858, guid: 98ae7509bb05aa14ebf03cc501d3c6a4, type: 3}
      propertyPath: m_LocalRotation.x
      value: 0.7071068
      objectReference: {fileID: 0}
    - target: {fileID: 752676858, guid: 98ae7509bb05aa14ebf03cc501d3c6a4, type: 3}
      propertyPath: m_LocalRotation.y
      value: 0
      objectReference: {fileID: 0}
    - target: {fileID: 752676858, guid: 98ae7509bb05aa14ebf03cc501d3c6a4, type: 3}
      propertyPath: m_LocalRotation.z
      value: 0
      objectReference: {fileID: 0}
    - target: {fileID: 752676858, guid: 98ae7509bb05aa14ebf03cc501d3c6a4, type: 3}
      propertyPath: m_LocalEulerAnglesHint.x
      value: 90
      objectReference: {fileID: 0}
    - target: {fileID: 752676859, guid: 98ae7509bb05aa14ebf03cc501d3c6a4, type: 3}
      propertyPath: infiniteVertical
      value: 0
      objectReference: {fileID: 0}
    - target: {fileID: 752676859, guid: 98ae7509bb05aa14ebf03cc501d3c6a4, type: 3}
      propertyPath: infiniteHorizontal
      value: 0
      objectReference: {fileID: 0}
    - target: {fileID: 752676860, guid: 98ae7509bb05aa14ebf03cc501d3c6a4, type: 3}
      propertyPath: m_Size.x
      value: 1000
      objectReference: {fileID: 0}
    - target: {fileID: 752676860, guid: 98ae7509bb05aa14ebf03cc501d3c6a4, type: 3}
      propertyPath: m_Size.y
      value: 200
      objectReference: {fileID: 0}
    - target: {fileID: 800865132, guid: 98ae7509bb05aa14ebf03cc501d3c6a4, type: 3}
      propertyPath: infiniteVertical
      value: 0
      objectReference: {fileID: 0}
    - target: {fileID: 800865132, guid: 98ae7509bb05aa14ebf03cc501d3c6a4, type: 3}
      propertyPath: infiniteHorizontal
      value: 0
      objectReference: {fileID: 0}
    - target: {fileID: 1012377185, guid: 98ae7509bb05aa14ebf03cc501d3c6a4, type: 3}
      propertyPath: infiniteVertical
      value: 0
      objectReference: {fileID: 0}
    - target: {fileID: 1012377185, guid: 98ae7509bb05aa14ebf03cc501d3c6a4, type: 3}
      propertyPath: infiniteHorizontal
      value: 0
      objectReference: {fileID: 0}
    - target: {fileID: 1345183894, guid: 98ae7509bb05aa14ebf03cc501d3c6a4, type: 3}
      propertyPath: infiniteVertical
      value: 0
      objectReference: {fileID: 0}
    - target: {fileID: 1345183894, guid: 98ae7509bb05aa14ebf03cc501d3c6a4, type: 3}
      propertyPath: infiniteHorizontal
      value: 0
      objectReference: {fileID: 0}
    - target: {fileID: 1956457199, guid: 98ae7509bb05aa14ebf03cc501d3c6a4, type: 3}
      propertyPath: m_LocalScale.x
      value: 10
      objectReference: {fileID: 0}
    - target: {fileID: 1956457199, guid: 98ae7509bb05aa14ebf03cc501d3c6a4, type: 3}
      propertyPath: m_LocalScale.y
      value: 10
      objectReference: {fileID: 0}
    - target: {fileID: 1956457199, guid: 98ae7509bb05aa14ebf03cc501d3c6a4, type: 3}
      propertyPath: m_LocalScale.z
      value: 10
      objectReference: {fileID: 0}
    - target: {fileID: 1956457199, guid: 98ae7509bb05aa14ebf03cc501d3c6a4, type: 3}
      propertyPath: m_LocalPosition.x
      value: 0
      objectReference: {fileID: 0}
    - target: {fileID: 1956457199, guid: 98ae7509bb05aa14ebf03cc501d3c6a4, type: 3}
      propertyPath: m_LocalPosition.y
      value: 15.9954
      objectReference: {fileID: 0}
    - target: {fileID: 1956457199, guid: 98ae7509bb05aa14ebf03cc501d3c6a4, type: 3}
      propertyPath: m_LocalRotation.w
      value: 0.7071068
      objectReference: {fileID: 0}
    - target: {fileID: 1956457199, guid: 98ae7509bb05aa14ebf03cc501d3c6a4, type: 3}
      propertyPath: m_LocalRotation.x
      value: 0.7071068
      objectReference: {fileID: 0}
    - target: {fileID: 1956457199, guid: 98ae7509bb05aa14ebf03cc501d3c6a4, type: 3}
      propertyPath: m_LocalRotation.y
      value: 0
      objectReference: {fileID: 0}
    - target: {fileID: 1956457199, guid: 98ae7509bb05aa14ebf03cc501d3c6a4, type: 3}
      propertyPath: m_LocalRotation.z
      value: 0
      objectReference: {fileID: 0}
    - target: {fileID: 1956457199, guid: 98ae7509bb05aa14ebf03cc501d3c6a4, type: 3}
      propertyPath: m_LocalEulerAnglesHint.x
      value: 90
      objectReference: {fileID: 0}
    - target: {fileID: 1956457200, guid: 98ae7509bb05aa14ebf03cc501d3c6a4, type: 3}
      propertyPath: infiniteVertical
      value: 0
      objectReference: {fileID: 0}
    - target: {fileID: 1956457200, guid: 98ae7509bb05aa14ebf03cc501d3c6a4, type: 3}
      propertyPath: infiniteHorizontal
      value: 0
      objectReference: {fileID: 0}
    - target: {fileID: 1956457201, guid: 98ae7509bb05aa14ebf03cc501d3c6a4, type: 3}
      propertyPath: m_Size.x
      value: 1000
      objectReference: {fileID: 0}
    - target: {fileID: 1956457201, guid: 98ae7509bb05aa14ebf03cc501d3c6a4, type: 3}
      propertyPath: m_Size.y
      value: 200
      objectReference: {fileID: 0}
    - target: {fileID: 1644043790956556833, guid: 98ae7509bb05aa14ebf03cc501d3c6a4, type: 3}
      propertyPath: m_Name
      value: Background
      objectReference: {fileID: 0}
    - target: {fileID: 1644043790956556834, guid: 98ae7509bb05aa14ebf03cc501d3c6a4, type: 3}
      propertyPath: m_RootOrder
      value: 4
      objectReference: {fileID: 0}
    - target: {fileID: 1644043790956556834, guid: 98ae7509bb05aa14ebf03cc501d3c6a4, type: 3}
      propertyPath: m_LocalPosition.x
      value: 4862
      objectReference: {fileID: 0}
    - target: {fileID: 1644043790956556834, guid: 98ae7509bb05aa14ebf03cc501d3c6a4, type: 3}
      propertyPath: m_LocalPosition.y
      value: -55
      objectReference: {fileID: 0}
    - target: {fileID: 1644043790956556834, guid: 98ae7509bb05aa14ebf03cc501d3c6a4, type: 3}
      propertyPath: m_LocalPosition.z
      value: 0
      objectReference: {fileID: 0}
    - target: {fileID: 1644043790956556834, guid: 98ae7509bb05aa14ebf03cc501d3c6a4, type: 3}
      propertyPath: m_LocalRotation.w
      value: 1
      objectReference: {fileID: 0}
    - target: {fileID: 1644043790956556834, guid: 98ae7509bb05aa14ebf03cc501d3c6a4, type: 3}
      propertyPath: m_LocalRotation.x
      value: 0
      objectReference: {fileID: 0}
    - target: {fileID: 1644043790956556834, guid: 98ae7509bb05aa14ebf03cc501d3c6a4, type: 3}
      propertyPath: m_LocalRotation.y
      value: 0
      objectReference: {fileID: 0}
    - target: {fileID: 1644043790956556834, guid: 98ae7509bb05aa14ebf03cc501d3c6a4, type: 3}
      propertyPath: m_LocalRotation.z
      value: 0
      objectReference: {fileID: 0}
    - target: {fileID: 1644043790956556834, guid: 98ae7509bb05aa14ebf03cc501d3c6a4, type: 3}
      propertyPath: m_LocalEulerAnglesHint.x
      value: 0
      objectReference: {fileID: 0}
    - target: {fileID: 1644043790956556834, guid: 98ae7509bb05aa14ebf03cc501d3c6a4, type: 3}
      propertyPath: m_LocalEulerAnglesHint.y
      value: 0
      objectReference: {fileID: 0}
    - target: {fileID: 1644043790956556834, guid: 98ae7509bb05aa14ebf03cc501d3c6a4, type: 3}
      propertyPath: m_LocalEulerAnglesHint.z
      value: 0
      objectReference: {fileID: 0}
    - target: {fileID: 1644043791094048958, guid: 98ae7509bb05aa14ebf03cc501d3c6a4, type: 3}
      propertyPath: m_LocalScale.x
      value: 10
      objectReference: {fileID: 0}
    - target: {fileID: 1644043791094048958, guid: 98ae7509bb05aa14ebf03cc501d3c6a4, type: 3}
      propertyPath: m_LocalScale.y
      value: 10
      objectReference: {fileID: 0}
    - target: {fileID: 1644043791094048958, guid: 98ae7509bb05aa14ebf03cc501d3c6a4, type: 3}
      propertyPath: m_LocalScale.z
      value: 10
      objectReference: {fileID: 0}
    - target: {fileID: 1644043791094048958, guid: 98ae7509bb05aa14ebf03cc501d3c6a4, type: 3}
      propertyPath: m_LocalPosition.x
      value: 0
      objectReference: {fileID: 0}
    - target: {fileID: 1644043791094048958, guid: 98ae7509bb05aa14ebf03cc501d3c6a4, type: 3}
      propertyPath: m_LocalPosition.y
      value: 0
      objectReference: {fileID: 0}
    - target: {fileID: 1644043791094048958, guid: 98ae7509bb05aa14ebf03cc501d3c6a4, type: 3}
      propertyPath: m_LocalRotation.w
      value: 0.7071068
      objectReference: {fileID: 0}
    - target: {fileID: 1644043791094048958, guid: 98ae7509bb05aa14ebf03cc501d3c6a4, type: 3}
      propertyPath: m_LocalRotation.x
      value: 0.7071068
      objectReference: {fileID: 0}
    - target: {fileID: 1644043791094048958, guid: 98ae7509bb05aa14ebf03cc501d3c6a4, type: 3}
      propertyPath: m_LocalRotation.y
      value: 0
      objectReference: {fileID: 0}
    - target: {fileID: 1644043791094048958, guid: 98ae7509bb05aa14ebf03cc501d3c6a4, type: 3}
      propertyPath: m_LocalRotation.z
      value: 0
      objectReference: {fileID: 0}
    - target: {fileID: 1644043791094048958, guid: 98ae7509bb05aa14ebf03cc501d3c6a4, type: 3}
      propertyPath: m_LocalEulerAnglesHint.x
      value: 90
      objectReference: {fileID: 0}
    - target: {fileID: 1644043791094048959, guid: 98ae7509bb05aa14ebf03cc501d3c6a4, type: 3}
      propertyPath: m_Size.x
      value: 1000
      objectReference: {fileID: 0}
    - target: {fileID: 1644043791094048959, guid: 98ae7509bb05aa14ebf03cc501d3c6a4, type: 3}
      propertyPath: m_Size.y
      value: 200
      objectReference: {fileID: 0}
    - target: {fileID: 1644043791859479481, guid: 98ae7509bb05aa14ebf03cc501d3c6a4, type: 3}
      propertyPath: m_LocalScale.x
      value: 10
      objectReference: {fileID: 0}
    - target: {fileID: 1644043791859479481, guid: 98ae7509bb05aa14ebf03cc501d3c6a4, type: 3}
      propertyPath: m_LocalScale.y
      value: 10
      objectReference: {fileID: 0}
    - target: {fileID: 1644043791859479481, guid: 98ae7509bb05aa14ebf03cc501d3c6a4, type: 3}
      propertyPath: m_LocalScale.z
      value: 10
      objectReference: {fileID: 0}
    - target: {fileID: 1644043791859479481, guid: 98ae7509bb05aa14ebf03cc501d3c6a4, type: 3}
      propertyPath: m_LocalPosition.x
      value: 0
      objectReference: {fileID: 0}
    - target: {fileID: 1644043791859479481, guid: 98ae7509bb05aa14ebf03cc501d3c6a4, type: 3}
      propertyPath: m_LocalPosition.y
      value: 0
      objectReference: {fileID: 0}
    - target: {fileID: 1644043791859479481, guid: 98ae7509bb05aa14ebf03cc501d3c6a4, type: 3}
      propertyPath: m_LocalRotation.w
      value: 0.7071068
      objectReference: {fileID: 0}
    - target: {fileID: 1644043791859479481, guid: 98ae7509bb05aa14ebf03cc501d3c6a4, type: 3}
      propertyPath: m_LocalRotation.x
      value: 0.7071068
      objectReference: {fileID: 0}
    - target: {fileID: 1644043791859479481, guid: 98ae7509bb05aa14ebf03cc501d3c6a4, type: 3}
      propertyPath: m_LocalRotation.y
      value: 0
      objectReference: {fileID: 0}
    - target: {fileID: 1644043791859479481, guid: 98ae7509bb05aa14ebf03cc501d3c6a4, type: 3}
      propertyPath: m_LocalRotation.z
      value: 0
      objectReference: {fileID: 0}
    - target: {fileID: 1644043791859479481, guid: 98ae7509bb05aa14ebf03cc501d3c6a4, type: 3}
      propertyPath: m_LocalEulerAnglesHint.x
      value: 90
      objectReference: {fileID: 0}
    - target: {fileID: 1644043791859479482, guid: 98ae7509bb05aa14ebf03cc501d3c6a4, type: 3}
      propertyPath: m_Size.x
      value: 1000
      objectReference: {fileID: 0}
    - target: {fileID: 1644043791859479482, guid: 98ae7509bb05aa14ebf03cc501d3c6a4, type: 3}
      propertyPath: m_Size.y
      value: 200
      objectReference: {fileID: 0}
    - target: {fileID: 1644043792903645320, guid: 98ae7509bb05aa14ebf03cc501d3c6a4, type: 3}
      propertyPath: m_LocalScale.x
      value: 10
      objectReference: {fileID: 0}
    - target: {fileID: 1644043792903645320, guid: 98ae7509bb05aa14ebf03cc501d3c6a4, type: 3}
      propertyPath: m_LocalScale.y
      value: 10
      objectReference: {fileID: 0}
    - target: {fileID: 1644043792903645320, guid: 98ae7509bb05aa14ebf03cc501d3c6a4, type: 3}
      propertyPath: m_LocalScale.z
      value: 10
      objectReference: {fileID: 0}
    - target: {fileID: 1644043792903645320, guid: 98ae7509bb05aa14ebf03cc501d3c6a4, type: 3}
      propertyPath: m_LocalPosition.x
      value: 0
      objectReference: {fileID: 0}
    - target: {fileID: 1644043792903645320, guid: 98ae7509bb05aa14ebf03cc501d3c6a4, type: 3}
      propertyPath: m_LocalPosition.y
      value: 0
      objectReference: {fileID: 0}
    - target: {fileID: 1644043792903645320, guid: 98ae7509bb05aa14ebf03cc501d3c6a4, type: 3}
      propertyPath: m_LocalRotation.w
      value: 0.7071068
      objectReference: {fileID: 0}
    - target: {fileID: 1644043792903645320, guid: 98ae7509bb05aa14ebf03cc501d3c6a4, type: 3}
      propertyPath: m_LocalRotation.x
      value: 0.7071068
      objectReference: {fileID: 0}
    - target: {fileID: 1644043792903645320, guid: 98ae7509bb05aa14ebf03cc501d3c6a4, type: 3}
      propertyPath: m_LocalRotation.y
      value: 0
      objectReference: {fileID: 0}
    - target: {fileID: 1644043792903645320, guid: 98ae7509bb05aa14ebf03cc501d3c6a4, type: 3}
      propertyPath: m_LocalRotation.z
      value: 0
      objectReference: {fileID: 0}
    - target: {fileID: 1644043792903645320, guid: 98ae7509bb05aa14ebf03cc501d3c6a4, type: 3}
      propertyPath: m_LocalEulerAnglesHint.x
      value: 90
      objectReference: {fileID: 0}
    - target: {fileID: 1644043792903645321, guid: 98ae7509bb05aa14ebf03cc501d3c6a4, type: 3}
      propertyPath: m_Size.x
      value: 1000
      objectReference: {fileID: 0}
    - target: {fileID: 1644043792903645321, guid: 98ae7509bb05aa14ebf03cc501d3c6a4, type: 3}
      propertyPath: m_Size.y
      value: 200
      objectReference: {fileID: 0}
    m_RemovedComponents: []
  m_SourcePrefab: {fileID: 100100000, guid: 98ae7509bb05aa14ebf03cc501d3c6a4, type: 3}
--- !u!1 &762758750
GameObject:
  m_ObjectHideFlags: 0
  m_CorrespondingSourceObject: {fileID: 0}
  m_PrefabInstance: {fileID: 0}
  m_PrefabAsset: {fileID: 0}
  serializedVersion: 6
  m_Component:
  - component: {fileID: 762758752}
  - component: {fileID: 762758751}
  m_Layer: 0
  m_Name: GameLevels
  m_TagString: Untagged
  m_Icon: {fileID: 0}
  m_NavMeshLayer: 0
  m_StaticEditorFlags: 0
  m_IsActive: 1
--- !u!114 &762758751
MonoBehaviour:
  m_ObjectHideFlags: 0
  m_CorrespondingSourceObject: {fileID: 0}
  m_PrefabInstance: {fileID: 0}
  m_PrefabAsset: {fileID: 0}
  m_GameObject: {fileID: 762758750}
  m_Enabled: 1
  m_EditorHideFlags: 0
  m_Script: {fileID: 11500000, guid: 2d342f02adf1d7f4da9c59ee079cac22, type: 3}
  m_Name: 
  m_EditorClassIdentifier: 
  levels:
  - {fileID: 11400000, guid: 443982e488fe9284784016260077d7a9, type: 2}
--- !u!4 &762758752
Transform:
  m_ObjectHideFlags: 0
  m_CorrespondingSourceObject: {fileID: 0}
  m_PrefabInstance: {fileID: 0}
  m_PrefabAsset: {fileID: 0}
  m_GameObject: {fileID: 762758750}
  m_LocalRotation: {x: 0, y: 0, z: 0, w: 1}
  m_LocalPosition: {x: 2.7385683, y: -5.0326257, z: -18.442152}
  m_LocalScale: {x: 1, y: 1, z: 1}
  m_Children: []
  m_Father: {fileID: 0}
  m_RootOrder: 1
  m_LocalEulerAnglesHint: {x: 0, y: 0, z: 0}
--- !u!1001 &790986320
PrefabInstance:
  m_ObjectHideFlags: 0
  serializedVersion: 2
  m_Modification:
    m_TransformParent: {fileID: 0}
    m_Modifications:
    - target: {fileID: 3827733148124682471, guid: 381aac60407b45e4fb019e4f87cbd746, type: 3}
      propertyPath: m_Name
      value: Player
      objectReference: {fileID: 0}
    - target: {fileID: 4491504621613072989, guid: 381aac60407b45e4fb019e4f87cbd746, type: 3}
      propertyPath: m_RootOrder
      value: 3
      objectReference: {fileID: 0}
    - target: {fileID: 4491504621613072989, guid: 381aac60407b45e4fb019e4f87cbd746, type: 3}
      propertyPath: m_LocalScale.x
      value: 2
      objectReference: {fileID: 0}
    - target: {fileID: 4491504621613072989, guid: 381aac60407b45e4fb019e4f87cbd746, type: 3}
      propertyPath: m_LocalScale.y
      value: 2
      objectReference: {fileID: 0}
    - target: {fileID: 4491504621613072989, guid: 381aac60407b45e4fb019e4f87cbd746, type: 3}
      propertyPath: m_LocalScale.z
      value: 2
      objectReference: {fileID: 0}
    - target: {fileID: 4491504621613072989, guid: 381aac60407b45e4fb019e4f87cbd746, type: 3}
      propertyPath: m_LocalPosition.x
      value: 0.02495575
      objectReference: {fileID: 0}
    - target: {fileID: 4491504621613072989, guid: 381aac60407b45e4fb019e4f87cbd746, type: 3}
      propertyPath: m_LocalPosition.y
      value: 0.34
      objectReference: {fileID: 0}
    - target: {fileID: 4491504621613072989, guid: 381aac60407b45e4fb019e4f87cbd746, type: 3}
      propertyPath: m_LocalPosition.z
      value: 0.24
      objectReference: {fileID: 0}
    - target: {fileID: 4491504621613072989, guid: 381aac60407b45e4fb019e4f87cbd746, type: 3}
      propertyPath: m_LocalRotation.w
      value: 1
      objectReference: {fileID: 0}
    - target: {fileID: 4491504621613072989, guid: 381aac60407b45e4fb019e4f87cbd746, type: 3}
      propertyPath: m_LocalRotation.x
      value: 0
      objectReference: {fileID: 0}
    - target: {fileID: 4491504621613072989, guid: 381aac60407b45e4fb019e4f87cbd746, type: 3}
      propertyPath: m_LocalRotation.y
      value: 0
      objectReference: {fileID: 0}
    - target: {fileID: 4491504621613072989, guid: 381aac60407b45e4fb019e4f87cbd746, type: 3}
      propertyPath: m_LocalRotation.z
      value: 0
      objectReference: {fileID: 0}
    - target: {fileID: 4491504621613072989, guid: 381aac60407b45e4fb019e4f87cbd746, type: 3}
      propertyPath: m_LocalEulerAnglesHint.x
      value: 0
      objectReference: {fileID: 0}
    - target: {fileID: 4491504621613072989, guid: 381aac60407b45e4fb019e4f87cbd746, type: 3}
      propertyPath: m_LocalEulerAnglesHint.y
      value: 0
      objectReference: {fileID: 0}
    - target: {fileID: 4491504621613072989, guid: 381aac60407b45e4fb019e4f87cbd746, type: 3}
      propertyPath: m_LocalEulerAnglesHint.z
      value: 0
      objectReference: {fileID: 0}
    m_RemovedComponents: []
  m_SourcePrefab: {fileID: 100100000, guid: 381aac60407b45e4fb019e4f87cbd746, type: 3}
--- !u!1 &997525219
GameObject:
  m_ObjectHideFlags: 0
  m_CorrespondingSourceObject: {fileID: 0}
  m_PrefabInstance: {fileID: 0}
  m_PrefabAsset: {fileID: 0}
  serializedVersion: 6
  m_Component:
  - component: {fileID: 997525220}
  m_Layer: 0
  m_Name: Cameras
  m_TagString: Untagged
  m_Icon: {fileID: 0}
  m_NavMeshLayer: 0
  m_StaticEditorFlags: 0
  m_IsActive: 1
--- !u!4 &997525220
Transform:
  m_ObjectHideFlags: 0
  m_CorrespondingSourceObject: {fileID: 0}
  m_PrefabInstance: {fileID: 0}
  m_PrefabAsset: {fileID: 0}
  m_GameObject: {fileID: 997525219}
  m_LocalRotation: {x: 0, y: 0, z: 0, w: 1}
  m_LocalPosition: {x: 0, y: 0, z: 0}
  m_LocalScale: {x: 1, y: 1, z: 1}
  m_Children:
  - {fileID: 485874613}
  - {fileID: 513410362}
  m_Father: {fileID: 0}
  m_RootOrder: 2
  m_LocalEulerAnglesHint: {x: 0, y: 0, z: 0}
--- !u!1 &1102492782
GameObject:
  m_ObjectHideFlags: 0
  m_CorrespondingSourceObject: {fileID: 0}
  m_PrefabInstance: {fileID: 0}
  m_PrefabAsset: {fileID: 0}
  serializedVersion: 6
  m_Component:
  - component: {fileID: 1102492784}
  - component: {fileID: 1102492783}
  m_Layer: 0
  m_Name: Directional Light
  m_TagString: Untagged
  m_Icon: {fileID: 0}
  m_NavMeshLayer: 0
  m_StaticEditorFlags: 0
  m_IsActive: 1
--- !u!108 &1102492783
Light:
  m_ObjectHideFlags: 0
  m_CorrespondingSourceObject: {fileID: 0}
  m_PrefabInstance: {fileID: 0}
  m_PrefabAsset: {fileID: 0}
  m_GameObject: {fileID: 1102492782}
  m_Enabled: 1
  serializedVersion: 10
  m_Type: 1
  m_Shape: 0
  m_Color: {r: 1, g: 0.95686275, b: 0.8392157, a: 1}
  m_Intensity: 1
  m_Range: 10
  m_SpotAngle: 30
  m_InnerSpotAngle: 21.80208
  m_CookieSize: 10
  m_Shadows:
    m_Type: 2
    m_Resolution: -1
    m_CustomResolution: -1
    m_Strength: 1
    m_Bias: 0.05
    m_NormalBias: 0.4
    m_NearPlane: 0.2
    m_CullingMatrixOverride:
      e00: 1
      e01: 0
      e02: 0
      e03: 0
      e10: 0
      e11: 1
      e12: 0
      e13: 0
      e20: 0
      e21: 0
      e22: 1
      e23: 0
      e30: 0
      e31: 0
      e32: 0
      e33: 1
    m_UseCullingMatrixOverride: 0
  m_Cookie: {fileID: 0}
  m_DrawHalo: 0
  m_Flare: {fileID: 0}
  m_RenderMode: 0
  m_CullingMask:
    serializedVersion: 2
    m_Bits: 4294967295
  m_RenderingLayerMask: 1
  m_Lightmapping: 4
  m_LightShadowCasterMode: 0
  m_AreaSize: {x: 1, y: 1}
  m_BounceIntensity: 1
  m_ColorTemperature: 6570
  m_UseColorTemperature: 0
  m_BoundingSphereOverride: {x: 0, y: 0, z: 0, w: 0}
  m_UseBoundingSphereOverride: 0
  m_UseViewFrustumForShadowCasterCull: 1
  m_ShadowRadius: 0
  m_ShadowAngle: 0
--- !u!4 &1102492784
Transform:
  m_ObjectHideFlags: 0
  m_CorrespondingSourceObject: {fileID: 0}
  m_PrefabInstance: {fileID: 0}
  m_PrefabAsset: {fileID: 0}
  m_GameObject: {fileID: 1102492782}
  m_LocalRotation: {x: 0.53068674, y: -0, z: -0, w: 0.847568}
  m_LocalPosition: {x: 0, y: 27.84, z: 0}
  m_LocalScale: {x: 1, y: 1, z: 1}
  m_Children: []
  m_Father: {fileID: 0}
  m_RootOrder: 0
  m_LocalEulerAnglesHint: {x: 64.104, y: 0, z: 0}
--- !u!1 &1190004334
GameObject:
  m_ObjectHideFlags: 0
  m_CorrespondingSourceObject: {fileID: 0}
  m_PrefabInstance: {fileID: 0}
  m_PrefabAsset: {fileID: 0}
  serializedVersion: 6
  m_Component:
  - component: {fileID: 1190004335}
  - component: {fileID: 1190004336}
  m_Layer: 0
  m_Name: Layer0
  m_TagString: Untagged
  m_Icon: {fileID: 0}
  m_NavMeshLayer: 0
  m_StaticEditorFlags: 0
  m_IsActive: 1
--- !u!4 &1190004335
Transform:
  m_ObjectHideFlags: 0
  m_CorrespondingSourceObject: {fileID: 0}
  m_PrefabInstance: {fileID: 0}
  m_PrefabAsset: {fileID: 0}
  m_GameObject: {fileID: 1190004334}
  m_LocalRotation: {x: -0, y: -0, z: -0, w: 1}
  m_LocalPosition: {x: -49.0041, y: 0, z: 76.90005}
  m_LocalScale: {x: 10, y: 40, z: 1}
  m_Children: []
  m_Father: {fileID: 485874613}
  m_RootOrder: 0
  m_LocalEulerAnglesHint: {x: 0, y: 0, z: 0}
--- !u!212 &1190004336
SpriteRenderer:
  m_ObjectHideFlags: 0
  m_CorrespondingSourceObject: {fileID: 0}
  m_PrefabInstance: {fileID: 0}
  m_PrefabAsset: {fileID: 0}
  m_GameObject: {fileID: 1190004334}
  m_Enabled: 1
  m_CastShadows: 0
  m_ReceiveShadows: 0
  m_DynamicOccludee: 1
  m_MotionVectors: 1
  m_LightProbeUsage: 1
  m_ReflectionProbeUsage: 1
  m_RayTracingMode: 0
  m_RayTraceProcedural: 0
  m_RenderingLayerMask: 1
  m_RendererPriority: 0
  m_Materials:
  - {fileID: 10754, guid: 0000000000000000f000000000000000, type: 0}
  m_StaticBatchInfo:
    firstSubMesh: 0
    subMeshCount: 0
  m_StaticBatchRoot: {fileID: 0}
  m_ProbeAnchor: {fileID: 0}
  m_LightProbeVolumeOverride: {fileID: 0}
  m_ScaleInLightmap: 1
  m_ReceiveGI: 1
  m_PreserveUVs: 0
  m_IgnoreNormalsForChartDetection: 0
  m_ImportantGI: 0
  m_StitchLightmapSeams: 1
  m_SelectedEditorRenderState: 0
  m_MinimumChartSize: 4
  m_AutoUVMaxDistance: 0.5
  m_AutoUVMaxAngle: 89
  m_LightmapParameters: {fileID: 0}
  m_SortingLayerID: 0
  m_SortingLayer: 0
  m_SortingOrder: -70
  m_Sprite: {fileID: 21300000, guid: fd87142c355a41e4caaae098957e99e3, type: 3}
  m_Color: {r: 1, g: 1, b: 1, a: 1}
  m_FlipX: 0
  m_FlipY: 0
  m_DrawMode: 0
  m_Size: {x: 29.95, y: 2.98}
  m_AdaptiveModeThreshold: 0.5
  m_SpriteTileMode: 0
  m_WasSpriteAssigned: 1
  m_MaskInteraction: 0
  m_SpriteSortPoint: 0
--- !u!4 &1470069922 stripped
Transform:
  m_CorrespondingSourceObject: {fileID: 4491504621613072989, guid: 381aac60407b45e4fb019e4f87cbd746, type: 3}
  m_PrefabInstance: {fileID: 790986320}
  m_PrefabAsset: {fileID: 0}
